R_for_data_science | Wutao's Blog
…
library(nycflights13)
library(tidyverse)
##select all filghts on January 1st
filter(flights,month==1,day==1)
# A tibble: 842 x 19
    year month   day dep_time sched_dep_time
   <int> <int> <int>    <int>          <int>
 1  2013     1     1      517            515
 2  2013     1     1      533            529
 3  2013     1     1      542            540
 4  2013     1     1      544            545
 5  2013     1     1      554            600
 6  2013     1     1      554            558
 7  2013     1     1      555            600
 8  2013     1     1      557            600
 9  2013     1     1      557            600
10  2013     1     1      558            600
# ... with 832 more rows, and 14 more variables:
#   dep_delay <dbl>, arr_time <int>,
#   sched_arr_time <int>, arr_delay <dbl>,
#   carrier <chr>, flight <int>, tailnum <chr>,
#   origin <chr>, dest <chr>, air_time <dbl>,
#   distance <dbl>, hour <dbl>, minute <dbl>,
#   time_hour <dttm>
…
##选择延误不超过2个小时的航班（包括到达延误和起飞延误）
filter(flights,!(arr_delay>120 | dep_delay>120))
filter(flights,arr_delay<120,dep_delay<120)
filter(flights,arr_delay<120&dep_delay<120)

# A tibble: 316,050 x 19
    year month   day dep_time sched_dep_time dep_delay arr_time sched_arr_time arr_delay carrier flight
   <int> <int> <int>    <int>          <int>     <dbl>    <int>          <int>     <dbl> <chr>    <int>
 1  2013     1     1      517            515         2      830            819        11 UA        1545
 2  2013     1     1      533            529         4      850            830        20 UA        1714
 3  2013     1     1      542            540         2      923            850        33 AA        1141
 4  2013     1     1      544            545        -1     1004           1022       -18 B6         725
 5  2013     1     1      554            600        -6      812            837       -25 DL         461
 6  2013     1     1      554            558        -4      740            728        12 UA        1696
 7  2013     1     1      555            600        -5      913            854        19 B6         507
 8  2013     1     1      557            600        -3      709            723       -14 EV        5708
 9  2013     1     1      557            600        -3      838            846        -8 B6          79
10  2013     1     1      558            600        -2      753            745         8 AA         301
# ... with 316,040 more rows, and 8 more variables: tailnum <chr>, origin <chr>, dest <chr>,
#   air_time <dbl>, distance <dbl>, hour <dbl>, minute <dbl>, time_hour <dttm>
…
filter(flights,month==11 | month==12)
filter(flights,month==11 | 12)##这个其实我们选的是一月，因为11 | 12 的值是TRUE，在表示数字的时候，TRUE就等于1

##或者我们使用%in%
filter(flights,month %in% c(11,12))

# A tibble: 55,403 x 19
    year month   day dep_time sched_dep_time dep_delay arr_time
   <int> <int> <int>    <int>          <int>     <dbl>    <int>
 1  2013    11     1        5           2359         6      352
 2  2013    11     1       35           2250       105      123
 3  2013    11     1      455            500        -5      641
 4  2013    11     1      539            545        -6      856
 5  2013    11     1      542            545        -3      831
 6  2013    11     1      549            600       -11      912
 7  2013    11     1      550            600       -10      705
 8  2013    11     1      554            600        -6      659
 9  2013    11     1      554            600        -6      826
10  2013    11     1      554            600        -6      749
# ... with 55,393 more rows, and 12 more variables:
#   sched_arr_time <int>, arr_delay <dbl>, carrier <chr>,
#   flight <int>, tailnum <chr>, origin <chr>, dest <chr>,
#   air_time <dbl>, distance <dbl>, hour <dbl>, minute <dbl>,
#   time_hour <dttm>
…
```R
arrange(flights,dep_delay,sched_dep_time)

# A tibble: 336,776 x 19
    year month   day dep_time sched_dep_time dep_delay arr_time sched_arr_time
   <int> <int> <int>    <int>          <int>     <dbl>    <int>          <int>
 1  2013    12     7     2040           2123       -43       40           2352
 2  2013     2     3     2022           2055       -33     2240           2338
 3  2013    11    10     1408           1440       -32     1549           1559
 4  2013     1    11     1900           1930       -30     2233           2243
 5  2013     1    29     1703           1730       -27     1947           1957
 6  2013     8     9      729            755       -26     1002            955
 7  2013    10    23     1907           1932       -25     2143           2143
 8  2013     3    30     2030           2055       -25     2213           2250
 9  2013     5    14      914            938       -24     1143           1204
10  2013     5     5      934            958       -24     1225           1309
# ... with 336,766 more rows, and 11 more variables: arr_delay <dbl>,
#   carrier <chr>, flight <int>, tailnum <chr>, origin <chr>, dest <chr>,
#   air_time <dbl>, distance <dbl>, hour <dbl>, minute <dbl>, time_hour <dttm>
…
arrange(flights,desc(dep_delay),desc(day))

# A tibble: 336,776 x 19
    year month   day dep_time sched_dep_time dep_delay arr_time sched_arr_time
   <int> <int> <int>    <int>          <int>     <dbl>    <int>          <int>
 1  2013     1     9      641            900      1301     1242           1530
 2  2013     6    15     1432           1935      1137     1607           2120
 3  2013     1    10     1121           1635      1126     1239           1810
 4  2013     9    20     1139           1845      1014     1457           2210
 5  2013     7    22      845           1600      1005     1044           1815
 6  2013     4    10     1100           1900       960     1342           2211
 7  2013     3    17     2321            810       911      135           1020
 8  2013     6    27      959           1900       899     1236           2226
 9  2013     7    22     2257            759       898      121           1026
10  2013    12     5      756           1700       896     1058           2020
# ... with 336,766 more rows, and 11 more variables: arr_delay <dbl>,
#   carrier <chr>, flight <int>, tailnum <chr>, origin <chr>, dest <chr>,
#   air_time <dbl>, distance <dbl>, hour <dbl>, minute <dbl>, time_hour <dttm>
…
select(flights,DAYS = day)
# A tibble: 336,776 x 1
    DAYS
   <int>
 1     1
 2     1
 3     1
 4     1
 5     1
 6     1
 7     1
 8     1
 9     1
10     1
# ... with 336,766 more rows

rename(flights,DAYS = day)
# A tibble: 336,776 x 19
    year month  DAYS dep_time sched_dep_time dep_delay arr_time sched_arr_time
   <int> <int> <int>    <int>          <int>     <dbl>    <int>          <int>
 1  2013     1     1      517            515         2      830            819
 2  2013     1     1      533            529         4      850            830
 3  2013     1     1      542            540         2      923            850
 4  2013     1     1      544            545        -1     1004           1022
 5  2013     1     1      554            600        -6      812            837
 6  2013     1     1      554            558        -4      740            728
 7  2013     1     1      555            600        -5      913            854
 8  2013     1     1      557            600        -3      709            723
 9  2013     1     1      557            600        -3      838            846
10  2013     1     1      558            600        -2      753            745
# ... with 336,766 more rows, and 11 more variables: arr_delay <dbl>,
#   carrier <chr>, flight <int>, tailnum <chr>, origin <chr>, dest <chr>,
#   air_time <dbl>, distance <dbl>, hour <dbl>, minute <dbl>, time_hour <dttm>
…
select(flights,time_hour,everything())
# A tibble: 336,776 x 19
   time_hour            year month   day dep_time sched_dep_time dep_delay
   <dttm>              <int> <int> <int>    <int>          <int>     <dbl>
 1 2013-01-01 05:00:00  2013     1     1      517            515         2
 2 2013-01-01 05:00:00  2013     1     1      533            529         4
 3 2013-01-01 05:00:00  2013     1     1      542            540         2
 4 2013-01-01 05:00:00  2013     1     1      544            545        -1
 5 2013-01-01 06:00:00  2013     1     1      554            600        -6
 6 2013-01-01 05:00:00  2013     1     1      554            558        -4
 7 2013-01-01 06:00:00  2013     1     1      555            600        -5
 8 2013-01-01 06:00:00  2013     1     1      557            600        -3
 9 2013-01-01 06:00:00  2013     1     1      557            600        -3
10 2013-01-01 06:00:00  2013     1     1      558            600        -2
# ... with 336,766 more rows, and 12 more variables: arr_time <int>,
#   sched_arr_time <int>, arr_delay <dbl>, carrier <chr>, flight <int>,
#   tailnum <chr>, origin <chr>, dest <chr>, air_time <dbl>, distance <dbl>,
#   hour <dbl>, minute <dbl>
…
```R
select_if(flights,is.character)
# A tibble: 336,776 x 4
   carrier tailnum origin dest 
   <chr>   <chr>   <chr>  <chr>
 1 UA      N14228  EWR    IAH  
 2 UA      N24211  LGA    IAH  
 3 AA      N619AA  JFK    MIA  
 4 B6      N804JB  JFK    BQN  
 5 DL      N668DN  LGA    ATL  
 6 UA      N39463  EWR    ORD  
 7 B6      N516JB  EWR    FLL  
 8 EV      N829AS  LGA    IAD  
 9 B6      N593JB  JFK    MCO  
10 AA      N3ALAA  LGA    ORD  
# ... with 336,766 more rows

select_if(flights,is.numeric) %>%
  select_if(~mean(.,na.rm = T)>10)##~表示匿名函数
##也可以使用自定义函数
more_than_10 <- function(x){
  mean(x,na.rm = T)>10
}
select_if(flights,is.numeric)%>%
  select_if(more_than_10)
# A tibble: 336,776 x 12
    year   day dep_time sched_dep_time dep_delay arr_time sched_arr_time flight
   <int> <int>    <int>          <int>     <dbl>    <int>          <int>  <int>
 1  2013     1      517            515         2      830            819   1545
 2  2013     1      533            529         4      850            830   1714
 3  2013     1      542            540         2      923            850   1141
 4  2013     1      544            545        -1     1004           1022    725
 5  2013     1      554            600        -6      812            837    461
 6  2013     1      554            558        -4      740            728   1696
 7  2013     1      555            600        -5      913            854    507
 8  2013     1      557            600        -3      709            723   5708
 9  2013     1      557            600        -3      838            846     79
10  2013     1      558            600        -2      753            745    301
# ... with 336,766 more rows, and 4 more variables: air_time <dbl>,
#   distance <dbl>, hour <dbl>, minute <dbl>
…
```R
select_if(flights,is.numeric)%>%
  select_all(.,function(x){
    paste(x,"a",sep = "")
})
# A tibble: 336,776 x 14
   yeara montha  daya dep_timea sched_dep_timea dep_delaya arr_timea
   <int>  <int> <int>     <int>           <int>      <dbl>     <int>
 1  2013      1     1       517             515          2       830
 2  2013      1     1       533             529          4       850
 3  2013      1     1       542             540          2       923
 4  2013      1     1       544             545         -1      1004
 5  2013      1     1       554             600         -6       812
 6  2013      1     1       554             558         -4       740
 7  2013      1     1       555             600         -5       913
 8  2013      1     1       557             600         -3       709
 9  2013      1     1       557             600         -3       838
10  2013      1     1       558             600         -2       753
# ... with 336,766 more rows, and 7 more variables: sched_arr_timea <int>,
#   arr_delaya <dbl>, flighta <int>, air_timea <dbl>, distancea <dbl>,
#   houra <dbl>, minutea <dbl>
…
select(flights,dep_delay,arr_delay,dep_delay)
# A tibble: 336,776 x 2
   dep_delay arr_delay
       <dbl>     <dbl>
 1         2        11
 2         4        20
 3         2        33
 4        -1       -18
 5        -6       -25
 6        -4        12
 7        -5        19
 8        -3       -14
 9        -3        -8
10        -2         8
# ... with 336,766 more rows
…
```one_of()```根据字符向量来选择列，因为生成一个字符向量比一个一个打不带引号的变量名要方便：

```R
a <- head(colnames(flights),5)
select(flights,one_of(a))
# A tibble: 336,776 x 5
   year month   day dep_time sched_dep_time
  <int> <int> <int>    <int>          <int>
1  2013     1     1      517            515
2  2013     1     1      533            529
3  2013     1     1      542            540
4  2013     1     1      544            545
5  2013     1     1      554            600
6  2013     1     1      554            558
7  2013     1     1      555            600
8  2013     1     1      557            600
9  2013     1     1      557            600
10  2013     1     1      558            600
# ... with 336,766 more rows 
…
```R
##选择数据
flights_sm <- select(flights,year:day,ends_with("delay"),distance,air_time)
##添加新列
mutate(flights_sm,
       gain=dep_delay-arr_delay,
       speed=distance/air_time*60,
       gain_per_hour=gain/speed)

# A tibble: 336,776 x 10
    year month   day dep_delay arr_delay distance air_time  gain speed
   <int> <int> <int>     <dbl>     <dbl>    <dbl>    <dbl> <dbl> <dbl>
 1  2013     1     1         2        11     1400      227    -9  370.
 2  2013     1     1         4        20     1416      227   -16  374.
 3  2013     1     1         2        33     1089      160   -31  408.
 4  2013     1     1        -1       -18     1576      183    17  517.
 5  2013     1     1        -6       -25      762      116    19  394.
 6  2013     1     1        -4        12      719      150   -16  288.
 7  2013     1     1        -5        19     1065      158   -24  404.
 8  2013     1     1        -3       -14      229       53    11  259.
 9  2013     1     1        -3        -8      944      140     5  405.
10  2013     1     1        -2         8      733      138   -10  319.
# ... with 336,766 more rows, and 1 more variable: gain_per_hour <dbl>
…
transmute(flights,
          gain=dep_delay-arr_delay,
          hours=air_time/60,
          gain_per_hour=gain/hours)
# A tibble: 336,776 x 3
    gain hours gain_per_hour
   <dbl> <dbl>         <dbl>
 1    -9 3.78          -2.38
 2   -16 3.78          -4.23
 3   -31 2.67         -11.6 
 4    17 3.05           5.57
 5    19 1.93           9.83
 6   -16 2.5           -6.4 
 7   -24 2.63          -9.11
 8    11 0.883         12.5 
 9     5 2.33           2.14
10   -10 2.3           -4.35
# ... with 336,766 more rows
…
transmute(flights,
          dep_time,
          hour=dep_time%/%100,
          minute=dep_time%%100)
# A tibble: 336,776 x 3
   dep_time  hour minute
      <int> <dbl>  <dbl>
 1      517     5     17
 2      533     5     33
 3      542     5     42
 4      544     5     44
 5      554     5     54
 6      554     5     54
 7      555     5     55
 8      557     5     57
 9      557     5     57
10      558     5     58
# ... with 336,766 more rows
…
lead(column,n)获取当前行的下n行数据的某个字段（column）

lag(column,n)获取当前行的前n行数据的某个字段（column）

last()获取最晚的某一个字段的值

first()获取最早的某一个字段的值

nth()获取某个字段的第n个记录

flights%>%
  group_by(year)%>%
  mutate(pre_year=paste(lag(year,1),lag(month,1),lag(day,1),sep = "-"))%>%
  select(pre_year,everything())
# A tibble: 336,776 x 20
# Groups:   year [1]
   pre_year  year month   day dep_time sched_dep_time dep_delay arr_time
   <chr>    <int> <int> <int>    <int>          <int>     <dbl>    <int>
 1 NA-NA-NA  2013     1     1      517            515         2      830
 2 2013-1-1  2013     1     1      533            529         4      850
 3 2013-1-1  2013     1     1      542            540         2      923
 4 2013-1-1  2013     1     1      544            545        -1     1004
 5 2013-1-1  2013     1     1      554            600        -6      812
 6 2013-1-1  2013     1     1      554            558        -4      740
 7 2013-1-1  2013     1     1      555            600        -5      913
 8 2013-1-1  2013     1     1      557            600        -3      709
 9 2013-1-1  2013     1     1      557            600        -3      838
10 2013-1-1  2013     1     1      558            600        -2      753
# ... with 336,766 more rows, and 12 more variables: sched_arr_time <int>,
#   arr_delay <dbl>, carrier <chr>, flight <int>, tailnum <chr>, origin <chr>,
#   dest <chr>, air_time <dbl>, distance <dbl>, hour <dbl>, minute <dbl>,
#   time_hour <dttm>
…
mutate(flights,
       new_dep_time=((dep_time%/%100)*60+dep_time%%100)%%1440,
       new_sched_dep_time=((sched_dep_time%/%100)*60+sched_dep_time%%100)%%1440)%>%
  select(new_dep_time,new_sched_dep_time,everything())
# A tibble: 336,776 x 21
   new_dep_time new_sched_dep_t~  year month   day dep_time sched_dep_time dep_delay
          <dbl>            <dbl> <int> <int> <int>    <int>          <int>     <dbl>
 1          317              315  2013     1     1      517            515         2
 2          333              329  2013     1     1      533            529         4
 3          342              340  2013     1     1      542            540         2
 4          344              345  2013     1     1      544            545        -1
 5          354              360  2013     1     1      554            600        -6
 6          354              358  2013     1     1      554            558        -4
 7          355              360  2013     1     1      555            600        -5
 8          357              360  2013     1     1      557            600        -3
 9          357              360  2013     1     1      557            600        -3
10          358              360  2013     1     1      558            600        -2
# ... with 336,766 more rows, and 13 more variables: arr_time <int>,
#   sched_arr_time <int>, arr_delay <dbl>, carrier <chr>, flight <int>,
#   tailnum <chr>, origin <chr>, dest <chr>, air_time <dbl>, distance <dbl>,
#   hour <dbl>, minute <dbl>, time_hour <dttm>
…
hour2min <- function(x){
  ((x%/%100)*60+x%%100)%%1440
}

a <- mutate(flights,
       new_deptime = hour2min(dep_time)-hour2min(sched_dep_time),
       diff_deptime=new_deptime-dep_delay) %>%
  filter(diff_deptime!=0)%>%
  select(diff_deptime,everything())
a
# A tibble: 1,236 x 21
   diff_deptime  year month   day dep_time sched_dep_time dep_delay arr_time sched_arr_time
          <dbl> <int> <int> <int>    <int>          <int>     <dbl>    <int>          <int>
 1        -1440  2013     1     1      848           1835       853     1001           1950
 2        -1440  2013     1     2       42           2359        43      518            442
 3        -1440  2013     1     2      126           2250       156      233           2359
 4        -1440  2013     1     3       32           2359        33      504            442
 5        -1440  2013     1     3       50           2145       185      203           2311
 6        -1440  2013     1     3      235           2359       156      700            437
 7        -1440  2013     1     4       25           2359        26      505            442
 8        -1440  2013     1     4      106           2245       141      201           2356
 9        -1440  2013     1     5       14           2359        15      503            445
10        -1440  2013     1     5       37           2230       127      341            131
# ... with 1,226 more rows, and 12 more variables: arr_delay <dbl>, carrier <chr>, flight <int>,
#   tailnum <chr>, origin <chr>, dest <chr>, air_time <dbl>, distance <dbl>, hour <dbl>,
#   minute <dbl>, time_hour <dttm>, new_deptime <dbl>
…
